[
  {
    "bowler": "RN ten Doeschate",
    "economyRate": 3.4285714285714284
  },
  {
    "bowler": "J Yadav",
    "economyRate": 4.142857142857142
  },
  {
    "bowler": "V Kohli",
    "economyRate": 5.454545454545454
  },
  {
    "bowler": "R Ashwin",
    "economyRate": 5.7238493723849375
  },
  {
    "bowler": "S Nadeem",
    "economyRate": 5.863636363636363
  },
  {
    "bowler": "MC Henriques",
    "economyRate": 6.1558441558441555
  },
  {
    "bowler": "Z Khan",
    "economyRate": 6.157894736842106
  },
  {
    "bowler": "Parvez Rasool",
    "economyRate": 6.200000000000001
  },
  {
    "bowler": "MA Starc",
    "economyRate": 6.613636363636363
  },
  {
    "bowler": "Sandeep Sharma",
    "economyRate": 6.885245901639344
  }
]